{"peers":
[
{"address":"127.0.0.1",
"port":9091,
"id":"Peer1_SSL"
},
{"address":"127.0.0.1",
"port":9092,
"id":"Peer2_SSL"
},
{"address":"127.0.0.1",
"port":9093,
"id":"Peer3_SSL"
},
{"address":"127.0.0.1",
"port":9094,
"id":"Peer4_SSL"
},
{"address":"127.0.0.1",
"port":9095,
"id":"Peer5_SSL"
}],
"MBBTimeOut":40,
"MBBFileUploadTimeOut":60
}